[
  {
    "Id": "1",
    "IdCountry": "FR",
    "IdDept": "60230",
    "IdLab": "IMITOX",
    "MdSpe": "",
    "Institution": "",
    "Indic": "",
    "NominalDose": null,
    "ActualDose": "0",
    "NominalDTime": null,
    "ActualDTime": null,
    "DoseFreq": null,
    "ActualSTime": null,
    "Concentration": null,
    "Sex": "0",
    "Wt": null,
    "Age": "21",
    "Crcl": null,
    "IrCat": "Normal",
    "Ast": null,
    "Alt": null,
    "IhCat": "Normal",
    "IdPatient": "1"
  },
  {
    "Id": "2",
    "IdCountry": "FR",
    "IdDept": "60230",
    "IdLab": "IMITOX",
    "MdSpe": "Generaliste",
    "Institution": "Clinique Sainte Marie",
    "Indic": "Indication donnee",
    "NominalDose": "10",
    "ActualDose": "11",
    "NominalDTime": "00:12",
    "ActualDTime": "00:15",
    "DoseFreq": "3",
    "ActualSTime": "00:01",
    "Concentration": "15",
    "Sex": "0",
    "Wt": "78",
    "Age": "21",
    "Crcl": "5",
    "IrCat": "Légère",
    "Ast": "2",
    "Alt": "15",
    "IhCat": "Modérée",
    "IdPatient": "1"
  }
]
